Faunalytics Wildlife
…
5) Quantity brought by year

quantity_year<- data %>% filter(unit=="NO" | unit=="KG") # 5,107,119 -> 5,078,227
quantity_year_summary<- quantity_year %>% group_by(shipment_year, unit) %>%
  summarise(quantity = sum(quantity)) 

quantity_year_summary

## # A tibble: 30 x 3
## # Groups:   shipment_year [15]
##    shipment_year unit   quantity
##    <fct>         <fct>     <int>
##  1 2000          KG     29295638
##  2 2000          NO    660368186
##  3 2001          KG     30105748
##  4 2001          NO    833741141
##  5 2002          KG     35683521
##  6 2002          NO    806134730
##  7 2003          KG     30137632
##  8 2003          NO    769151810
##  9 2004          KG     32454703
## 10 2004          NO    784315580
## # ... with 20 more rows
…
